{
  "rqResponse": {
    "rqAuthentication": "Session: GSTSS|9618206",
    "dsContract": {
      "ttContract": [
        {
          "cContractIdentifier": "2438064028.188",
          "dProductObj": 784532388.188,
          "dCampaignObj": 578328848,
          "dSchemeObj": 0,
          "dBusinessTypeObj": 0,
          "cProductMarketingName": "Covision",
          "cContractNumber": "3133788",
          "dContractTypeObj": 374688206.188,
          "cContractReference": "",
          "cContractReferenceDesc": "",
          "cOldContractReference": "",
          "dSinglePaymentAmount": 0,
          "dContractStatusObj": 53065.19,
          "dContractUserStatusObj": 0,
          "dtCommencementDate": "2016-0 9-0 1",
          "dtInceptionDate": null,
          "dtTerminationDate": null,
          "dtMaturityDate": "3015-0 8-31",
          "iContractTermYears": 999,
          "iContractTermMonths": 0,
          "dCommissionPercent": 0,
          "lJointContract": false,
          "dFourFundTaxCodeObj": 0,
          "ttContractType": [
            {
              "dContractTypeObj": 374688206.188,
              "cCode": "IND",
              "cContractType": "Individualcontract"
            }
          ],
          "ttContractProduct": [
            {
              "dProductObj": 784532388.188,
              "cCode": "8040",
              "cProductName": "Covision-LifeCoverSeries2",
              "dProductTypeObj": 92284790.188,
              "ttContractProductType": [
                {
                  "dProductTypeObj": 92284790.188,
                  "cLineOfBusinessCode": "LAL",
                  "cLineOfBusinessLabel": "LifeAssurance-Life",
                  "cBroadLineOfBusinessCode": "LAL",
                  "cBroadLineOfBusinessLabel": "LifeAssurance-Life"
                }
              ]
            }
          ],
          "ttContractCampaign": [
            {
              "dCampaignObj": 578328848,
              "cCode": "COV003",
              "cCampaignName": "CovisionFuneral(Simplified)"
            }
          ],
          "ttContractStatus": [
            {
              "dContractStatusObj": 53065.19,
              "cCode": "NEW",
              "cContractStatus": "New"
            }
          ],
          "ttContractCollectionDetails": [
            {
              "cContractIdentifier": "2438064028.188",
              "dPremium": 100.65,
              "dExpectedPremium": 0,
              "dPremiumBalance": 0,
              "dNumberOfPremiumsinArrears": 0,
              "dtNextCollectionDate": null,
              "dtNextCollectionAmount": 0,
              "dtGracePeriodEndDate": null,
              "cCollectionFacilityEvent": "",
              "lCollectionInAdvance": false
            }
          ],
          "ttContractCollectionFrequency": [
            {
              "cContractIdentifier": "2438064028.188",
              "cCode": "1",
              "cCollectionFrequency": "Monthly"
            }
          ],
          "ttContractRole": [
            {
              "dContractRoleEntityObj": 2438064036.188,
              "cContractIdentifier": "2438064028.188",
              "cContractNumber": "3133788",
              "cOEM": "AGMON",
              "dOwningObj": 453232164.188,
              "dRoleObj": 39897256,
              "dRelationshipObj": 0,
              "cName": "CovisionFuneralUndertaker(Covision)",
              "cFirstName": "",
              "cLastName": "",
              "cInitials": "",
              "cTitle": "",
              "cGender": "",
              "cMaritalStatus": "",
              "lMainPlayerInRole": false,
              "cPlayerInRoleDesc": "AdditionalAdministrationCompany",
              "dtDateOfBirth": null,
              "iAgeYearsEffectiveDate": 0,
              "iAgeMonthsEffectiveDate": 0,
              "iAgeYearsToday": 0,
              "iAgeMonthsToday": 0,
              "dtEffectiveFromDate": "2016-0 9-0 1",
              "dtEffectiveToDate": null,
              "cRelationship": "",
              "dtContractSignatureDate": null,
              "dtDateOfDeath": null,
              "dtChangedDate": "2016-0 8-23",
              "iChangedTime": 59632,
              "dChangedByUserObj": 2434398604.188,
              "dApportionmentPercent": 100,
              "ttContractRoleStatus": [
                {
                  "dContractRoleEntityObj": 2438064036.188,
                  "cCode": "Future",
                  "cLabel": "Future",
                  "cDesc": "Future: InForcefrom2016/0 9/0 1"
                }
              ],
              "ttRoleDesc": [
                {
                  "dRoleObj": 39897256,
                  "cCode": "AdminCompany",
                  "cRoleDesc": "AdministrationCompany",
                  "cRoleType": "",
                  "iSequence": 999
                }
              ]
            },
            {
              "dContractRoleEntityObj": 2438064080.188,
              "cContractIdentifier": "2438064028.188",
              "cContractNumber": "3133788",
              "cOEM": "CBMBS",
              "dOwningObj": 521547743.188,
              "dRoleObj": 14751460.188,
              "dRelationshipObj": 0,
              "cName": "FEIKIEBAHOLO(ROYALS-1754-BAH094)",
              "cFirstName": "",
              "cLastName": "",
              "cInitials": "",
              "cTitle": "",
              "cGender": "",
              "cMaritalStatus": "",
              "lMainPlayerInRole": true,
              "cPlayerInRoleDesc": "MainAgent",
              "dtDateOfBirth": null,
              "iAgeYearsEffectiveDate": 0,
              "iAgeMonthsEffectiveDate": 0,
              "iAgeYearsToday": 0,
              "iAgeMonthsToday": 0,
              "dtEffectiveFromDate": "2016-0 8-0 1",
              "dtEffectiveToDate": null,
              "cRelationship": "",
              "dtContractSignatureDate": "2016-0 9-0 1",
              "dtDateOfDeath": null,
              "dtChangedDate": "2016-0 8-23",
              "iChangedTime": 59635,
              "dChangedByUserObj": 2434398604.188,
              "dApportionmentPercent": 0,
              "ttContractRoleStatus": [
                {
                  "dContractRoleEntityObj": 2438064080.188,
                  "cCode": "Current",
                  "cLabel": "Current",
                  "cDesc": "Current: InForceSince2016/0 8/0 1"
                }
              ],
              "ttRolePrimaryIdentityDetails": [
                {
                  "dContractRoleEntityObj": 2438064080.188,
                  "cIdentityNumber": "ROYALS-1754-BAH094",
                  "cCode": "EntityRef",
                  "cLabel": "EntityReference",
                  "cDesc": "EntityReference"
                },
                {
                  "dContractRoleEntityObj": 2438064080.188,
                  "cIdentityNumber": "ROYALS-1754-BAH094",
                  "cCode": "",
                  "cLabel": "",
                  "cDesc": ""
                }
              ],
              "ttContractRoleContactInfo": [
                {
                  "dContractRoleEntityObj": 2438064080.188,
                  "cContactInfoType": "MOB",
                  "cContactInfoLabel": "MobilePhone",
                  "cContactInfoDetail": "0 786535315"
                }
              ],
              "ttRoleDesc": [
                {
                  "dRoleObj": 14751460.188,
                  "cCode": "Agent",
                  "cRoleDesc": "Agent",
                  "cRoleType": "",
                  "iSequence": 999
                }
              ]
            },
            {
              "dContractRoleEntityObj": 2438064075.188,
              "cContractIdentifier": "2438064028.188",
              "cContractNumber": "3133788",
              "cOEM": "AGMPE",
              "dOwningObj": 2438064018.188,
              "dRoleObj": 41667.19,
              "dRelationshipObj": 343179.8,
              "cName": "Mrsbenejohs",
              "cFirstName": "bene",
              "cLastName": "johs",
              "cInitials": "B",
              "cTitle": "Mrs",
              "cGender": "Female",
              "cMaritalStatus": "Single",
              "lMainPlayerInRole": true,
              "cPlayerInRoleDesc": "MainBeneficiary",
              "dtDateOfBirth": "1979-11-21",
              "iAgeYearsEffectiveDate": 36,
              "iAgeMonthsEffectiveDate": 5,
              "iAgeYearsToday": 36,
              "iAgeMonthsToday": 9,
              "dtEffectiveFromDate": "2016-0 5-0 1",
              "dtEffectiveToDate": null,
              "cRelationship": "Self",
              "dtContractSignatureDate": "2016-0 9-0 1",
              "dtDateOfDeath": null,
              "dtChangedDate": "2016-0 8-23",
              "iChangedTime": 59635,
              "dChangedByUserObj": 2434398604.188,
              "dApportionmentPercent": 100,
              "ttContractRoleStatus": [
                {
                  "dContractRoleEntityObj": 2438064075.188,
                  "cCode": "Current",
                  "cLabel": "Current",
                  "cDesc": "Current: InForceSince2016/0 5/0 1"
                }
              ],
              "ttRolePrimaryIdentityDetails": [
                {
                  "dContractRoleEntityObj": 2438064075.188,
                  "cIdentityNumber": "7911211162087",
                  "cCode": "EntityRef",
                  "cLabel": "EntityReference",
                  "cDesc": "EntityReference"
                },
                {
                  "dContractRoleEntityObj": 2438064075.188,
                  "cIdentityNumber": "7911211162087",
                  "cCode": "RSAID",
                  "cLabel": "RSAIdentityDocument",
                  "cDesc": "RSAIdentityDocument"
                }
              ],
              "ttRoleDesc": [
                {
                  "dRoleObj": 41667.19,
                  "cCode": "Bene",
                  "cRoleDesc": "Beneficiary",
                  "cRoleType": "",
                  "iSequence": 5
                }
              ]
            },
            {
              "dContractRoleEntityObj": 2438064033.188,
              "cContractIdentifier": "2438064028.188",
              "cContractNumber": "3133788",
              "cOEM": "CBMBS",
              "dOwningObj": 488481395.188,
              "dRoleObj": 47494.19,
              "dRelationshipObj": 0,
              "cName": "CovisionLife(LTD)Broker(640)",
              "cFirstName": "",
              "cLastName": "",
              "cInitials": "",
              "cTitle": "",
              "cGender": "",
              "cMaritalStatus": "",
              "lMainPlayerInRole": false,
              "cPlayerInRoleDesc": "AdditionalBroker",
              "dtDateOfBirth": null,
              "iAgeYearsEffectiveDate": 0,
              "iAgeMonthsEffectiveDate": 0,
              "iAgeYearsToday": 0,
              "iAgeMonthsToday": 0,
              "dtEffectiveFromDate": "2016-0 9-0 1",
              "dtEffectiveToDate": null,
              "cRelationship": "",
              "dtContractSignatureDate": null,
              "dtDateOfDeath": null,
              "dtChangedDate": "2016-0 8-23",
              "iChangedTime": 59632,
              "dChangedByUserObj": 2434398604.188,
              "dApportionmentPercent": 100,
              "ttContractRoleStatus": [
                {
                  "dContractRoleEntityObj": 2438064033.188,
                  "cCode": "Future",
                  "cLabel": "Future",
                  "cDesc": "Future: InForcefrom2016/0 9/0 1"
                }
              ],
              "ttRolePrimaryIdentityDetails": [
                {
                  "dContractRoleEntityObj": 2438064033.188,
                  "cIdentityNumber": "640",
                  "cCode": "EntityRef",
                  "cLabel": "EntityReference",
                  "cDesc": "EntityReference"
                },
                {
                  "dContractRoleEntityObj": 2438064033.188,
                  "cIdentityNumber": "640",
                  "cCode": "",
                  "cLabel": "",
                  "cDesc": ""
                }
              ],
              "ttContractRolePayment": [
                {
                  "dContractRoleEntityObj": 2438064033.188,
                  "dBankAccountDetailObj": 0,
                  "cBankAccountReference": "",
                  "cPaymentConsolidationGroup": "",
                  "dPaymentTermsObj": 93446.188,
                  "cPaymentFrequencyTla": "",
                  "dPaymentMethodCodeObj": 0,
                  "dApportionmentPercent": 100
                }
              ],
              "ttRoleDesc": [
                {
                  "dRoleObj": 47494.19,
                  "cCode": "brk",
                  "cRoleDesc": "Broker",
                  "cRoleType": "",
                  "iSequence": 4
                }
              ]
            },
            {
              "dContractRoleEntityObj": 2438064051.188,
              "cContractIdentifier": "2438064028.188",
              "cContractNumber": "3133788",
              "cOEM": "AGMPE",
              "dOwningObj": 2434760296.188,
              "dRoleObj": 41666.19,
              "dRelationshipObj": 343179.8,
              "cName": "Mrralwinnjohnson",
              "cFirstName": "ralwinn",
              "cLastName": "johnson",
              "cInitials": "R",
              "cTitle": "Mr",
              "cGender": "Male",
              "cMaritalStatus": "Single",
              "lMainPlayerInRole": true,
              "cPlayerInRoleDesc": "MainLifeAssured",
              "dtDateOfBirth": "1991-12-0 7",
              "iAgeYearsEffectiveDate": 24,
              "iAgeMonthsEffectiveDate": 4,
              "iAgeYearsToday": 24,
              "iAgeMonthsToday": 8,
              "dtEffectiveFromDate": "2016-0 5-0 1",
              "dtEffectiveToDate": null,
              "cRelationship": "Self",
              "dtContractSignatureDate": "2016-0 9-0 1",
              "dtDateOfDeath": null,
              "dtChangedDate": "2016-0 8-23",
              "iChangedTime": 59633,
              "dChangedByUserObj": 2434398604.188,
              "dApportionmentPercent": 0,
              "ttContractRoleStatus": [
                {
                  "dContractRoleEntityObj": 2438064051.188,
                  "cCode": "Current",
                  "cLabel": "Current",
                  "cDesc": "Current: InForceSince2016/0 5/0 1"
                }
              ],
              "ttRolePrimaryIdentityDetails": [
                {
                  "dContractRoleEntityObj": 2438064051.188,
                  "cIdentityNumber": "9112075215081",
                  "cCode": "EntityRef",
                  "cLabel": "EntityReference",
                  "cDesc": "EntityReference"
                },
                {
                  "dContractRoleEntityObj": 2438064051.188,
                  "cIdentityNumber": "9112075215081",
                  "cCode": "RSAID",
                  "cLabel": "RSAIdentityDocument",
                  "cDesc": "RSAIdentityDocument"
                }
              ],
              "ttContractRoleContactInfo": [
                {
                  "dContractRoleEntityObj": 2438064051.188,
                  "cContactInfoType": "MOB",
                  "cContactInfoLabel": "MobilePhone",
                  "cContactInfoDetail": "0 720866181"
                }
              ],
              "ttRoleDesc": [
                {
                  "dRoleObj": 41666.19,
                  "cCode": "LifeA",
                  "cRoleDesc": "LifeAssured",
                  "cRoleType": "",
                  "iSequence": 1
                }
              ]
            },
            {
              "dContractRoleEntityObj": 2438064070.188,
              "cContractIdentifier": "2438064028.188",
              "cContractNumber": "3133788",
              "cOEM": "AGMPE",
              "dOwningObj": 2438064008.188,
              "dRoleObj": 41666.19,
              "dRelationshipObj": 112960.19,
              "cName": "MsdepChildjohnson",
              "cFirstName": "depChild",
              "cLastName": "johnson",
              "cInitials": "D",
              "cTitle": "Ms",
              "cGender": "Female",
              "cMaritalStatus": "Single",
              "lMainPlayerInRole": false,
              "cPlayerInRoleDesc": "AdditionalLifeAssured",
              "dtDateOfBirth": "2011-0 2-0 1",
              "iAgeYearsEffectiveDate": 5,
              "iAgeMonthsEffectiveDate": 3,
              "iAgeYearsToday": 5,
              "iAgeMonthsToday": 6,
              "dtEffectiveFromDate": "2016-0 5-0 1",
              "dtEffectiveToDate": null,
              "cRelationship": "Child",
              "dtContractSignatureDate": "2016-0 9-0 1",
              "dtDateOfDeath": null,
              "dtChangedDate": "2016-0 8-23",
              "iChangedTime": 59634,
              "dChangedByUserObj": 2434398604.188,
              "dApportionmentPercent": 0,
              "ttContractRoleStatus": [
                {
                  "dContractRoleEntityObj": 2438064070.188,
                  "cCode": "Current",
                  "cLabel": "Current",
                  "cDesc": "Current: InForceSince2016/0 5/0 1"
                }
              ],
              "ttRolePrimaryIdentityDetails": [
                {
                  "dContractRoleEntityObj": 2438064070.188,
                  "cIdentityNumber": "1102012633080",
                  "cCode": "EntityRef",
                  "cLabel": "EntityReference",
                  "cDesc": "EntityReference"
                },
                {
                  "dContractRoleEntityObj": 2438064070.188,
                  "cIdentityNumber": "1102012633080",
                  "cCode": "RSAID",
                  "cLabel": "RSAIdentityDocument",
                  "cDesc": "RSAIdentityDocument"
                }
              ],
              "ttRoleDesc": [
                {
                  "dRoleObj": 41666.19,
                  "cCode": "LifeA",
                  "cRoleDesc": "LifeAssured",
                  "cRoleType": "",
                  "iSequence": 1
                }
              ]
            },
            {
              "dContractRoleEntityObj": 2438064059.188,
              "cContractIdentifier": "2438064028.188",
              "cContractNumber": "3133788",
              "cOEM": "AGMPE",
              "dOwningObj": 2434760296.188,
              "dRoleObj": 41665.19,
              "dRelationshipObj": 343179.8,
              "cName": "Mrralwinnjohnson",
              "cFirstName": "ralwinn",
              "cLastName": "johnson",
              "cInitials": "R",
              "cTitle": "Mr",
              "cGender": "Male",
              "cMaritalStatus": "Single",
              "lMainPlayerInRole": true,
              "cPlayerInRoleDesc": "MainPolicyHolder",
              "dtDateOfBirth": "1991-12-0 7",
              "iAgeYearsEffectiveDate": 24,
              "iAgeMonthsEffectiveDate": 4,
              "iAgeYearsToday": 24,
              "iAgeMonthsToday": 8,
              "dtEffectiveFromDate": "2016-0 5-0 1",
              "dtEffectiveToDate": null,
              "cRelationship": "Self",
              "dtContractSignatureDate": "2016-0 9-0 1",
              "dtDateOfDeath": null,
              "dtChangedDate": "2016-0 8-23",
              "iChangedTime": 59633,
              "dChangedByUserObj": 2434398604.188,
              "dApportionmentPercent": 100,
              "ttContractRoleStatus": [
                {
                  "dContractRoleEntityObj": 2438064059.188,
                  "cCode": "Current",
                  "cLabel": "Current",
                  "cDesc": "Current: InForceSince2016/0 5/0 1"
                }
              ],
              "ttRolePrimaryIdentityDetails": [
                {
                  "dContractRoleEntityObj": 2438064059.188,
                  "cIdentityNumber": "9112075215081",
                  "cCode": "EntityRef",
                  "cLabel": "EntityReference",
                  "cDesc": "EntityReference"
                },
                {
                  "dContractRoleEntityObj": 2438064059.188,
                  "cIdentityNumber": "9112075215081",
                  "cCode": "RSAID",
                  "cLabel": "RSAIdentityDocument",
                  "cDesc": "RSAIdentityDocument"
                }
              ],
              "ttContractRoleContactInfo": [
                {
                  "dContractRoleEntityObj": 2438064059.188,
                  "cContactInfoType": "MOB",
                  "cContactInfoLabel": "MobilePhone",
                  "cContactInfoDetail": "0 720866181"
                }
              ],
              "ttRoleDesc": [
                {
                  "dRoleObj": 41665.19,
                  "cCode": "PolicyH",
                  "cRoleDesc": "PolicyHolder",
                  "cRoleType": "",
                  "iSequence": 999
                }
              ]
            },
            {
              "dContractRoleEntityObj": 2438064064.188,
              "cContractIdentifier": "2438064028.188",
              "cContractNumber": "3133788",
              "cOEM": "AGMPE",
              "dOwningObj": 2434760296.188,
              "dRoleObj": 41664.19,
              "dRelationshipObj": 343179.8,
              "cName": "Mrralwinnjohnson",
              "cFirstName": "ralwinn",
              "cLastName": "johnson",
              "cInitials": "R",
              "cTitle": "Mr",
              "cGender": "Male",
              "cMaritalStatus": "Single",
              "lMainPlayerInRole": true,
              "cPlayerInRoleDesc": "MainPolicyPayer",
              "dtDateOfBirth": "1991-12-0 7",
              "iAgeYearsEffectiveDate": 24,
              "iAgeMonthsEffectiveDate": 4,
              "iAgeYearsToday": 24,
              "iAgeMonthsToday": 8,
              "dtEffectiveFromDate": "2016-0 5-0 1",
              "dtEffectiveToDate": null,
              "cRelationship": "Self",
              "dtContractSignatureDate": "2016-0 9-0 1",
              "dtDateOfDeath": null,
              "dtChangedDate": "2016-0 8-23",
              "iChangedTime": 59634,
              "dChangedByUserObj": 2434398604.188,
              "dApportionmentPercent": 100,
              "ttContractRoleStatus": [
                {
                  "dContractRoleEntityObj": 2438064064.188,
                  "cCode": "Current",
                  "cLabel": "Current",
                  "cDesc": "Current: InForceSince2016/0 5/0 1"
                }
              ],
              "ttRolePrimaryIdentityDetails": [
                {
                  "dContractRoleEntityObj": 2438064064.188,
                  "cIdentityNumber": "9112075215081",
                  "cCode": "EntityRef",
                  "cLabel": "EntityReference",
                  "cDesc": "EntityReference"
                },
                {
                  "dContractRoleEntityObj": 2438064064.188,
                  "cIdentityNumber": "9112075215081",
                  "cCode": "RSAID",
                  "cLabel": "RSAIdentityDocument",
                  "cDesc": "RSAIdentityDocument"
                }
              ],
              "ttContractRoleContactInfo": [
                {
                  "dContractRoleEntityObj": 2438064064.188,
                  "cContactInfoType": "MOB",
                  "cContactInfoLabel": "MobilePhone",
                  "cContactInfoDetail": "0 720866181"
                }
              ],
              "ttContractRoleCollection": [
                {
                  "dContractRoleEntityObj": 2438064064.188,
                  "dBankAccountDetailObj": 0,
                  "cBankAccountReference": "",
                  "dCollectionMethodCodeObj": 108979.19,
                  "iCollectionDay": 25,
                  "cCollectionConsolidationGroup": "",
                  "lSyncCollectionDayToPayDay": false,
                  "ttContractRoleCollMethod": [
                    {
                      "dCollectionMethodCodeObj": 108979.19,
                      "cCode": "Cash",
                      "cLabel": "Cash"
                    }
                  ]
                }
              ],
              "ttRoleDesc": [
                {
                  "dRoleObj": 41664.19,
                  "cCode": "Policyp",
                  "cRoleDesc": "PolicyPayer",
                  "cRoleType": "",
                  "iSequence": 3
                }
              ]
            }
          ]
        }
      ]
    }
  }
}