[{
    "branchName": "Namahadi Branch",
    "telNo": "058 789 1764",
    "physicalAddress": "nxt to Dikwena High School; Namahadi , Mangaung Village, Witsieshoek",
    "emailAddress": "namahadi.BM@covisiongroup.co.za, ntswakiM@covisiongroup.co.za",
    "contactPerson": "Branch Manager: Ntswaki Mofokeng",
    "branchFunction": "Funeral Home and Hospitality arrangements, Funeral Insurance new Business and policy Amendments, Funeral Insurance Premium Payments."
}, {
    "branchName": "Phuthaditjhaba Branch",
    "telNo": "058 713 0934",
    "physicalAddress": "2348 Mampoi Road; Phuthaditjhaba; 9866",
    "emailAddress": "phuthas.BM@covisiongroup.co.za / mananaM@covisiongroup.co.za",
    "contactPerson": "Manana Mtambo, Nwabisa Ngalo",
    "branchFunction": "Funeral Home and Hospitality arrangements, Funeral Insurance new Business and policy Amendments, Funeral Insurance Premium Payments."
}, {
    "branchName": "Bethlehem Branch",
    "telNo": "058 304 5553",
    "physicalAddress": "182/ 183 Karee Street; Bakenpark; Bethlehem",
    "emailAddress": "bethlehem.BM@covisiongroup.co.za, malefuN@covisiongroup.co.za",
    "contactPerson": "Branch Manager: Malefu Nyama",
    "branchFunction": "Funeral Home and Hospitality arrangements, Funeral Insurance new Business and policy Amendments, Funeral Insurance Premium Payments."
}, {
    "branchName": "Bloemfontein Branch",
    "telNo": "051 434 3668",
    "physicalAddress": "88 Piet Human; Hamilton; Bloemfontein; 9300",
    "emailAddress": "bloem.BM@covisiongroup.co.za",
    "contactPerson": "Branch Manager: Karabo Mamadi",
    "branchFunction": "Funeral Home and Hospitality arrangements, Funeral Insurance new Business and policy Amendments, Funeral Insurance Premium Payments."
}, {
    "branchName": "Bloemfontein Branch",
    "telNo": "051 430 2521",
    "physicalAddress": "Shop no: 43 &51 Bloem Plaza, cnr East Burger & Charles Str, Bloemfontein, 9300",
    "emailAddress": "KeletsoP@hollard.co.za",
    "contactPerson": "Keletso Phare",
    "branchFunction": "Client Care, New Business and Premium Collection"
}, {
    "branchName": "Ladybrand Branch",
    "telNo": "051 924 5830",
    "physicalAddress": "1822 Manyatseng; Ladybrand",
    "emailAddress": "ladybrand.BM@covisiongroup.co.za, motshedisiL@covisiongroup.co.za",
    "contactPerson": "Branch Manager: Motshedisi Leboea",
    "branchFunction": "Funeral Home and Hospitality arrangements, Funeral Insurance new Business and policy Amendments, Funeral Insurance Premium Payments."
}, {
    "branchName": "Welkom Branch",
    "telNo": "057 396 1054",
    "physicalAddress": "192 Jan Hofmeyer Road; Welkom",
    "emailAddress": "welkom.BM@covisiongroup.co.za, mojabengL@covisiongroup.co.za",
    "contactPerson": "Mojabeng Leokaoke",
    "branchFunction": "Funeral Home and Hospitality arrangements, Funeral Insurance new Business and policy Amendments."
}, {
    "branchName": "Welkom Branch",
    "telNo": "057 352 8684",
    "physicalAddress": "329 Stateway Road, Welkom, 9459",
    "emailAddress": "TshepoMD@hollard.co.za",
    "contactPerson": "Tshepo Mdakane",
    "branchFunction": "Client Care, New Business and Premium Collection"
}, {
    "branchName": "Vereeniging Branch",
    "telNo": "016 455 3921",
    "physicalAddress": "Shop no: 31, Mark Park Mall, cnr Beaconfield and Voortrekker Str, Vereeniging, 1930",
    "emailAddress": "AnnaM@hollard.co.za",
    "contactPerson": "Anna Mohapi",
    "branchFunction": "Client Care, New Business, Claims and Premium Collection"
}]