{
    "contractQuotation": {
        "contractProduct": [{
            "contractProductID": "1",
            "campaignCode": "COV003",
            "productCode": "8040",
            "coveredParty": [{
                "coveredPartyID": "1",
                "contractProductID": "1",
                "dateOfBirth": "",
                "relationship": "Self",
                "isMainInsured": "true",
                "coverBenefitCode": "1100",
                "coverAmount": ""
            }]
        }]
    }
}